{
  "version": "Sample 1.0.0",
  "model": "character.dat",
  "textures": [
    "texture_00.png"
  ],
  "motions": {
    "attack": [
      {
        "file": "c238_02_attack.mtn",
        "fade_in": 0,
        "fade_out": 0
      }
    ],
    "hit": [
      {
        "file": "c238_02_hit.mtn",
        "fade_in": 0,
        "fade_out": 0
      }
    ],
    "idle": [
      {
        "file": "c238_02_idle.mtn",
        "fade_in": 0,
        "fade_out": 0
      }
    ]
  }
}
